Class 3 Example regarding 2017 Survey Data
…
What is the relationship between 431 students pulse rate and hours of sleep?
Does the linear model change much by year?

knitr::opts_chunk$set(comment=NA)
options(width = 70)

library(magrittr); library(tidyverse)
## make sure these libraries are installed in R

sur_day1 <- read.csv("surveyday1_2017.csv") %>% tbl_df()

sur_day1

# A tibble: 203 x 20
   student    sex english statsofar ageguess smoke h.left h.right
     <int> <fctr>  <fctr>     <int>    <int> <int>  <int>   <int>
 1  201701      m       y         3       52     1     15       3
 2  201702      m       y         5       48     1     12       5
 3  201703      f       y         3       55     1      0      20
 4  201704      m       y         6       55     1     14       3
 5  201705      m       y         4       50     1      1      18
 6  201706      m       y         4       44     1      3      14
 7  201707      m       y         5       45     1      2      13
 8  201708      m       y         4       50     1      0      20
 9  201709      m       y         5       48     1      4       7
10  201710      f       y         5       55     1      2      10
# ... with 193 more rows, and 12 more variables: handedness <dbl>,
#   statfuture <int>, haircut <dbl>, lecture <int>, alone <int>,
#   height.in <dbl>, hand.span <dbl>, favcolor <fctr>,
#   lastsleep <dbl>, pulse <int>, year <int>, lovetrueage <dbl>
…
